<?xml version="1.0" encoding="utf-8"?>
<!-- Generator: Adobe Illustrator 16.0.0, SVG Export Plug-In . SVG Version: 6.00 Build 0)  -->
<!DOCTYPE svg PUBLIC "-//W3C//DTD SVG 1.1//EN" "http://www.w3.org/Graphics/SVG/1.1/DTD/svg11.dtd">
<svg version="1.1" id="Pagamentos" xmlns="http://www.w3.org/2000/svg" xmlns:xlink="http://www.w3.org/1999/xlink" x="0px" y="0px"
	 width="40px" height="35px" viewBox="0 0 40 35" enable-background="new 0 0 40 35" xml:space="preserve">
<path id="Caminho_141" fill="#425A99" d="M6.308,4.5C5.235,4.521,4.381,5.406,4.4,6.479v19.792
	c-0.034,1.053,0.792,1.936,1.846,1.969c1.054,0.035,1.936-0.792,1.97-1.846c0.001-0.041,0.001-0.082,0-0.123V6.479
	C8.235,5.406,7.381,4.521,6.308,4.5z M14.7,4.5c-1.073,0.021-1.927,0.906-1.908,1.979v19.792c-0.034,1.053,0.792,1.936,1.846,1.969
	c1.054,0.035,1.936-0.792,1.969-1.846c0.002-0.041,0.002-0.082,0-0.123V6.479C16.627,5.406,15.773,4.521,14.7,4.5z M23.1,4.5
	c-1.072,0.021-1.927,0.906-1.908,1.979v19.792c-0.033,1.053,0.793,1.936,1.847,1.969c1.054,0.035,1.936-0.792,1.97-1.846
	c0.002-0.041,0.002-0.082,0-0.123V6.479C25.027,5.406,24.173,4.521,23.1,4.5z M31.495,4.5c-1.073,0.021-1.927,0.906-1.908,1.979
	v19.792c-0.034,1.053,0.792,1.936,1.847,1.969c1.053,0.035,1.936-0.792,1.969-1.846c0.002-0.041,0.002-0.082,0-0.123V6.479
	c0.02-1.074-0.836-1.96-1.91-1.979l0,0H31.495z M8.333,0H1.667C0.746,0,0,0.746,0,1.667v6.667c0.022,0.92,0.787,1.648,1.708,1.625
	c0.889-0.021,1.604-0.737,1.625-1.625v-5h5c0.92,0.022,1.685-0.705,1.708-1.625c0.022-0.92-0.706-1.685-1.626-1.708
	C8.387,0,8.36,0,8.333,0L8.333,0z M38.333,0h-6.666c-0.921-0.022-1.685,0.705-1.708,1.625c-0.021,0.92,0.706,1.685,1.627,1.708
	c0.027,0,0.054,0,0.081,0h5v5c0.022,0.92,0.787,1.648,1.708,1.625C39.264,9.937,39.979,9.222,40,8.333V1.667
	C40,0.746,39.254,0,38.333,0z M38.333,25c-0.921,0-1.667,0.746-1.667,1.667v5h-5c-0.92,0.022-1.648,0.787-1.625,1.708
	c0.021,0.889,0.736,1.604,1.625,1.625h6.667C39.254,35,40,34.254,40,33.333v-6.666C40,25.746,39.254,25,38.333,25z M8.333,31.667h-5
	v-5c-0.022-0.921-0.787-1.648-1.708-1.626C0.737,25.063,0.022,25.778,0,26.667v6.667C0,34.254,0.747,35,1.667,35h6.667
	c0.92-0.022,1.648-0.787,1.625-1.707C9.938,32.404,9.223,31.689,8.333,31.667L8.333,31.667z"/>
</svg>
